<svg width="20" height="20" viewBox="0 0 20 20" fill="none" xmlns="http://www.w3.org/2000/svg">
<path d="M10 0C4.48663 0 0 4.47582 0 9.97768C0 15.4795 4.48634 19.9561 10 19.9561C15.5146 19.9561 20 15.4798 20 9.97768C20 4.47582 15.5149 0 10 0ZM14.328 7.93335L9.09063 13.1591C8.93338 13.3158 8.72614 13.395 8.52083 13.395C8.31394 13.395 8.10862 13.3159 7.95084 13.1591L5.67308 10.8864C5.35816 10.5719 5.35816 10.0632 5.67308 9.74899C5.98794 9.43483 6.49777 9.43483 6.81269 9.74899L8.52083 11.4539L13.1891 6.7958C13.5033 6.48199 14.0131 6.48199 14.328 6.7958C14.6429 7.11048 14.6429 7.61919 14.328 7.93335Z" fill="#36BA4D"/>
</svg>
