<svg width="18" height="22" viewBox="0 0 18 22" fill="none" xmlns="http://www.w3.org/2000/svg">
<path d="M8.60682 22H15.8627C16.6098 22 17.2162 21.386 17.2162 20.6296V2.80829V1.37047C17.2162 0.61399 16.6098 0 15.8627 0H8.60682H6.19415V0.453368C6.19924 0.500001 6.20182 0.549223 6.20182 0.598446V3.5855V4.35234C6.20182 5.41711 5.34728 6.28239 4.29573 6.28239H3.53841H0.588457C0.550079 6.28239 0.509143 6.2798 0.470765 6.27721H0V20.6296C0 21.386 0.606366 22 1.35345 22H2.83738H8.60682ZM8.88058 17.342H4.1499C3.79682 17.342 3.51027 17.0518 3.51027 16.6943C3.51027 16.3368 3.79682 16.0467 4.1499 16.0467H8.88314C9.23621 16.0467 9.52276 16.3368 9.52276 16.6943C9.52276 17.0518 9.23365 17.342 8.88058 17.342ZM13.6138 14.0363H4.1499C3.79682 14.0363 3.51027 13.7461 3.51027 13.3886C3.51027 13.0311 3.79682 12.741 4.1499 12.741H13.6138C13.9669 12.741 14.2534 13.0311 14.2534 13.3886C14.2534 13.7461 13.9669 14.0363 13.6138 14.0363ZM4.1499 9.23058H13.6138C13.9669 9.23058 14.2534 9.52074 14.2534 9.87825C14.2534 10.2358 13.9669 10.5259 13.6138 10.5259H4.1499C3.79682 10.5259 3.51027 10.2358 3.51027 9.87825C3.51027 9.52074 3.79682 9.23058 4.1499 9.23058Z" fill="#FF7969"/>
<path d="M0.588409 5.50497H4.29569C4.29824 5.50497 4.30336 5.50497 4.30592 5.50497C4.92508 5.49979 5.42655 4.99202 5.43166 4.36507C5.43166 4.36248 5.43166 4.3573 5.43166 4.35471V0.598229C5.43166 0.251078 5.15023 0.0205078 4.85858 0.0205078C4.71786 0.0205078 4.57715 0.0723213 4.45946 0.191492L0.184165 4.52051C-0.174026 4.88321 0.0792659 5.50497 0.588409 5.50497Z" fill="#FF7969"/>
</svg>
